Fig-S5H_thr_RT-qPCR_nkx2.1-KD
…
Quality Control: Raw Ct Values

# Load data
qPCR_GRN <- read_excel(paste0(file_path,"4_sgNkx2.1_thr_qPCR.xlsx"))
qPCR_GRN

# A tibble: 50 × 10
   group     stage    hpf bioRep thr_tecRep.1 thr_tecRep.2 thr_tecRep.3
   <chr>     <chr>  <dbl>  <dbl>        <dbl>        <dbl>        <dbl>
 1 control   earTII   9.3      1         26.7         26.1         26.9
 2 control   earTII   9.3      2         26.2         26.8         26.8
 3 control   earTII   9.3      3         26.6         26.8         26.1
 4 control   earTII   9.3      4         26.0         26.4         26.3
 5 control   earTII   9.3      5         26.1         26.7         26.4
 6 sg Nkx2.1 earTII   9.3      1         29.6         29.0         29.9
 7 sg Nkx2.1 earTII   9.3      2         29.7         29.5         29.0
 8 sg Nkx2.1 earTII   9.3      3         29.4         29.2         29.5
 9 sg Nkx2.1 earTII   9.3      4         29.3         29.5         29.5
10 sg Nkx2.1 earTII   9.3      5         29.1         29.4         29.3
# ℹ 40 more rows
# ℹ 3 more variables: actin_tecRep.1 <dbl>, actin_tecRep.2 <dbl>,
#   actin_tecRep.3 <dbl>
…
