Fig-2_tail regression- T4 window
…
# ===== pretty p-values for kable =====
format_pvalues <- function(df) {
  df %>%
    mutate(across(any_of(c("p.value", "p.value.x", "p.value.y", "adj.p.value")),
                  ~ case_when(
                    . < 0.001 ~ format(., scientific = TRUE, digits = 2),
                    TRUE ~ as.character(round(., 4))
                  )))
}

T4_attach.df <- read_excel(paste0(file_path,"7_T4_percentange_attachement.xlsx"))
T4_attach.df

# A tibble: 35 × 3
   condition total attached
   <chr>     <dbl>    <dbl>
 1 control     104       51
 2 control     114       54
 3 control      93       51
 4 control     101       45
 5 control      78       36
 6 control      57       30
 7 control      61       34
 8 1           107       83
 9 1           117       93
10 1            77       54
# ℹ 25 more rows
…
